<?xml version="1.0" encoding="UTF-8" standalone="no"?>
<!-- Created with Inkscape (http://www.inkscape.org/) -->

<svg
   xmlns:dc="http://purl.org/dc/elements/1.1/"
   xmlns:cc="http://creativecommons.org/ns#"
   xmlns:rdf="http://www.w3.org/1999/02/22-rdf-syntax-ns#"
   xmlns:svg="http://www.w3.org/2000/svg"
   xmlns="http://www.w3.org/2000/svg"
   xmlns:xlink="http://www.w3.org/1999/xlink"
   xmlns:sodipodi="http://sodipodi.sourceforge.net/DTD/sodipodi-0.dtd"
   xmlns:inkscape="http://www.inkscape.org/namespaces/inkscape"
   width="299.85455"
   height="342.53342"
   id="svg6365"
   version="1.1"
   inkscape:version="0.48.4 r9939"
   sodipodi:docname="шестиугольник_вклад.svg">
  <sodipodi:namedview
     id="base"
     pagecolor="#ffffff"
     bordercolor="#666666"
     borderopacity="1.0"
     inkscape:pageopacity="0.0"
     inkscape:pageshadow="2"
     inkscape:zoom="1.4142136"
     inkscape:cx="256.94646"
     inkscape:cy="146.904"
     inkscape:document-units="px"
     inkscape:current-layer="layer1"
     showgrid="true"
     inkscape:window-width="1862"
     inkscape:window-height="1061"
     inkscape:window-x="54"
     inkscape:window-y="-4"
     inkscape:window-maximized="1"
     fit-margin-top="0"
     fit-margin-left="0"
     fit-margin-right="0"
     fit-margin-bottom="0">
    <inkscape:grid
       id="grid6373"
       type="xygrid"
       empspacing="5"
       visible="true"
       enabled="true"
       snapvisiblegridlinesonly="true"
       originx="-312.5291px"
       originy="-563.46236px" />
  </sodipodi:namedview>
  <defs
     id="defs6367">
    <linearGradient
       id="linearGradient7284">
      <stop
         style="stop-color:#004351;stop-opacity:1"
         offset="0"
         id="stop7286" />
      <stop
         style="stop-color:#01c5aa;stop-opacity:1"
         offset="1"
         id="stop7288" />
    </linearGradient>
    <linearGradient
       id="linearGradient7185">
      <stop
         id="stop7187"
         offset="0"
         style="stop-color:#00575a;stop-opacity:1" />
      <stop
         id="stop7189"
         offset="1"
         style="stop-color:#02a67e;stop-opacity:1" />
    </linearGradient>
    <linearGradient
       gradientTransform="matrix(0,1.0519357,-1.0519357,0,718.05849,28.257631)"
       gradientUnits="userSpaceOnUse"
       y2="526.70374"
       x2="79.952179"
       y1="203.4901"
       x1="536.25385"
       id="linearGradient7191"
       xlink:href="#linearGradient7185"
       inkscape:collect="always" />
    <linearGradient
       y2="526.70374"
       x2="79.952179"
       y1="203.4901"
       x1="536.25385"
       gradientTransform="matrix(0,1.0519357,-1.0519357,0,717.52892,28.257631)"
       gradientUnits="userSpaceOnUse"
       id="linearGradient7203"
       xlink:href="#linearGradient7284"
       inkscape:collect="always" />
    <linearGradient
       inkscape:collect="always"
       xlink:href="#linearGradient7284"
       id="linearGradient7290"
       gradientUnits="userSpaceOnUse"
       gradientTransform="matrix(0,1.0519357,-1.0519357,0,851.1721,-14.875882)"
       x1="536.25385"
       y1="203.4901"
       x2="79.952179"
       y2="526.70374" />
  </defs>
  <metadata
     id="metadata6370">
    <rdf:RDF>
      <cc:Work
         rdf:about="">
        <dc:format>image/svg+xml</dc:format>
        <dc:type
           rdf:resource="http://purl.org/dc/dcmitype/StillImage" />
        <dc:title></dc:title>
      </cc:Work>
    </rdf:RDF>
  </metadata>
  <g
     id="layer1"
     inkscape:groupmode="layer"
     inkscape:label="Layer 1"
     transform="translate(-312.5291,-146.36642)">
    <path
       style="fill:url(#linearGradient7290);fill-opacity:1;stroke:none"
       d="m 463.70568,146.36649 c -3.78889,0.0144 -7.52723,2.19784 -15,6.53125 -43.01824,24.946 -80.05985,46.33142 -118.84375,68.4375 -15.66888,8.93097 -16.22138,7.89108 -16.46875,28.28125 -0.58802,48.45632 -1.55992,96.94385 -0.0937,145.375 0.34057,11.2499 10.84375,18.0625 10.84375,18.0625 l 119.75,68.6875 c 19.73819,9.48889 19.75606,9.48387 39.5,0.34375 l 113.125,-65.09375 c 15.12394,-9.75105 15.12617,-11.75495 15.71875,-29.125 l 0.0625,-138.59375 c 0.33552,-16.03715 0.3482,-18.03843 -13.8125,-26.90625 -39.06108,-24.46113 -79.19925,-47.18143 -119.46875,-69.59375 -7.68275,-4.27589 -11.52361,-6.42061 -15.3125,-6.40625 z m 0.0312,23.8125 c 3.72532,0.0897 7.52597,1.82621 13.125,5.28125 l 104.21875,60.71875 c 7.81901,4.21644 9.34375,8.53362 9.34375,17.75 l 0,125.9375 c 0.22272,7.67338 0.22121,12.69546 -8.75,17.875 l -107.84375,62.84375 c -10.17395,5.96781 -10.16941,5.96186 -20.125,0.46875 l -110.5625,-63.4375 c -8.4104,-4.90859 -8.41877,-4.90689 -8.71875,-14.8125 l 0,-131.0625 c 0.2138,-7.51187 1.21526,-10.50744 8.53125,-15 l 108.09375,-62 c 5.30226,-3.09641 8.96218,-4.65216 12.6875,-4.5625 z"
       id="path7171"
       inkscape:connector-curvature="0" />
    <g
       id="g4018"
       transform="matrix(3.1348099,0,0,3.1348099,-1022.0041,-919.61259)">
      <path
         inkscape:connector-curvature="0"
         id="path3496"
         style="fill:#ffffff;fill-opacity:1;fill-rule:evenodd;stroke:none"
         d="m 472.99048,421.03271 c 14.6375,0 26.51,-11.87125 26.51,-26.51 0,-14.63875 -11.8725,-26.51 -26.51,-26.51 -14.63876,0 -26.51,11.87125 -26.51,26.51 0,14.63875 11.87124,26.51 26.51,26.51" />
      <path
         inkscape:connector-curvature="0"
         id="path3500"
         style="fill:#bcdeda;fill-opacity:1;fill-rule:evenodd;stroke:none"
         d="m 486.52635,406.46846 c 1.6525,0.64625 3.2425,1.42125 4.74125,2.33 0.26375,0.16 0.525,0.3225 0.7825,0.49125 2.7675,-3.58125 4.54625,-7.9625 4.92,-12.73125 l -8.72375,0 c -0.14375,3.3975 -0.72375,6.75875 -1.72,9.91 m -11.57125,-2.4 c 2.7525,0.12875 5.495,0.5475 8.1325,1.265 0.86625,-2.78375 1.37875,-5.75875 1.51625,-8.775 l -9.64875,0 0,7.51 z m -11.89125,1.26625 c 2.62125,-0.705 5.36375,-1.12875 8.1325,-1.2625 l 0,-7.51375 -9.64625,0 c 0.1375,3.0175 0.64875,5.9925 1.51375,8.77625 m -9.01,3.89125 c 1.7175,-1.095 3.59,-2.0225 5.56625,-2.7775 -0.9925,-3.145 -1.57125,-6.5 -1.71375,-9.89 l -8.725,0 c 0.37125,4.74 2.1325,9.0975 4.8725,12.6675 m 6.8325,0.605 c -1.55125,0.58875 -3.02875,1.295 -4.40125,2.1125 2.60875,2.5075 5.77875,4.435 9.3025,5.56375 -0.915,-1.00125 -1.755,-2.08625 -2.51625,-3.245 -0.90625,-1.38125 -1.70125,-2.86875 -2.385,-4.43125 m 10.31,-2.1125 c -2.33125,0.1225 -4.63875,0.46625 -6.84625,1.02625 0.5825,1.29875 1.25125,2.53625 2.0075,3.6875 1.345,2.05 2.96375,3.83125 4.83875,5.23125 l 0,-9.945 z m 10.6075,1.02375 c -2.22125,-0.57125 -4.5275,-0.9125 -6.84875,-1.03 l 0,9.95375 c 1.875,-1.4 3.49375,-3.1825 4.84,-5.23375 0.75625,-1.1525 1.425,-2.39 2.00875,-3.69 m 7.8125,3.24875 c -0.0275,-0.0175 -0.0562,-0.0325 -0.0837,-0.05 -1.3475,-0.815 -2.78,-1.5125 -4.27375,-2.0925 -0.68125,1.555 -1.47375,3.0375 -2.37875,4.41375 -0.76,1.15875 -1.6,2.24375 -2.515,3.245 3.5,-1.12125 6.6525,-3.0325 9.25125,-5.51625 m -3.2425,-29.04125 c 1.0625,3.14875 1.675,6.49 1.8525,9.85 l 8.74375,0 c -0.3725,-4.765 -2.15,-9.14875 -4.9175,-12.73125 -0.25875,0.16875 -0.51875,0.33375 -0.78375,0.495 -1.545,0.935 -3.1875,1.72875 -4.895,2.38625 m -11.41875,2.34 0,7.51 9.62625,0 c -0.17125,-2.99 -0.715,-5.95125 -1.64625,-8.735 -2.59,0.69375 -5.28,1.09875 -7.98,1.225 m -11.7375,-1.225 c -0.93125,2.7825 -1.475,5.745 -1.64625,8.735 l 9.625,0 0,-7.51375 c -2.71375,-0.1325 -5.40375,-0.5425 -7.97875,-1.22125 m -9.1675,-3.9325 c -2.73875,3.57125 -4.49875,7.93 -4.86875,12.6675 l 8.745,0 c 0.1775,-3.35375 0.7875,-6.68875 1.845,-9.8325 -2.0325,-0.765 -3.9575,-1.7125 -5.72125,-2.835 m 7.06125,-0.5225 c 0.46,-0.9875 0.9675,-1.9475 1.53,-2.87375 1.135,-1.87375 2.48,-3.61125 4.0375,-5.155 -3.8825,1.07875 -7.37,3.1125 -10.19875,5.8325 1.44125,0.8575 2.995,1.5925 4.63125,2.19625 m 10.085,2.0325 0,-9.33375 c -2.18125,1.7025 -3.9825,3.80375 -5.4125,6.16375 -0.43125,0.71125 -0.8275,1.445 -1.1925,2.20125 2.135,0.525 4.3575,0.85 6.605,0.96875 m 10.36625,-0.965 c -0.36625,-0.75625 -0.76125,-1.4925 -1.19375,-2.205 -1.43,-2.36125 -3.2325,-4.4625 -5.41375,-6.165 l 0,9.3375 c 2.2375,-0.1125 4.46125,-0.4325 6.6075,-0.9675 m 8.0575,-3.3125 c -2.8175,-2.69375 -6.2875,-4.71125 -10.14625,-5.78375 1.5575,1.54375 2.90125,3.28125 4.0375,5.155 0.55875,0.92125 1.065,1.87625 1.52375,2.86 1.575,-0.59625 3.0825,-1.32 4.4975,-2.175 0.03,-0.0188 0.0587,-0.0387 0.0875,-0.0563 M 473.0764,366.98091 c 15.25625,0 27.6975,12.4425 27.6975,27.6975 0,15.2575 -12.44125,27.7 -27.6975,27.7 -15.2575,0 -27.69875,-12.4425 -27.69875,-27.7 0,-15.255 12.44125,-27.6975 27.69875,-27.6975" />
      <path
         inkscape:connector-curvature="0"
         id="path3504"
         style="fill:#e47e63;fill-opacity:1;fill-rule:evenodd;stroke:none"
         d="m 499.02323,385.01208 c 8.1625,-0.69374 13.5925,-0.01 14.185,2.20125 1.12375,4.195 -15.57,12.3375 -37.16,18.12125 -21.59125,5.78625 -40.12001,7.08375 -41.24376,2.885 -0.58875,-2.18875 3.68375,-5.455 10.96626,-8.89875 0.0937,0.5475 0.20375,1.08625 0.3275,1.62251 -3.97626,1.89874 -6.20751,3.52749 -5.92876,4.56749 0.68625,2.56125 16.30376,0.61625 34.76501,-4.33 18.46,-4.94625 32.9575,-11.07 32.2725,-13.6325 -0.28375,-1.0575 -3.12,-1.34625 -7.65,-0.97125 -0.16375,-0.52875 -0.34,-1.05 -0.53375,-1.565" />
      <path
         inkscape:connector-curvature="0"
         id="path3508"
         style="fill:#f6cd5d;fill-opacity:1;fill-rule:evenodd;stroke:none"
         d="m 497.16472,381.03996 c 8.6775,-0.82625 14.49876,-0.17625 15.1125,2.11875 1.125,4.1975 -15.56999,12.33625 -37.15999,18.12125 -21.59125,5.78625 -40.11876,7.0825 -41.24376,2.8875 -0.60125,-2.24375 3.89375,-5.61625 11.505,-9.15125 0.008,0.5825 0.0337,1.16125 0.0775,1.7375 -4.15751,1.95625 -6.50126,3.6375 -6.21626,4.7025 0.68625,2.5625 16.30376,0.61625 34.76501,-4.33125 18.45875,-4.945 32.95624,-11.06875 32.27125,-13.63 -0.29625,-1.10875 -3.39125,-1.37125 -8.2975,-0.915 -0.25626,-0.5225 -0.52751,-1.03625 -0.81376,-1.54" />
    </g>
  </g>
</svg>
